%YAML 1.1
%TAG !u! tag:unity3d.com,2011:
--- !u!1 &100000
GameObject:
  m_ObjectHideFlags: 0
  m_PrefabParentObject: {fileID: 0}
  m_PrefabInternal: {fileID: 100100000}
  serializedVersion: 4
  m_Component:
  - 4: {fileID: 400000}
  - 114: {fileID: 11400000}
  m_Layer: 0
  m_Name: closet
  m_TagString: Untagged
  m_Icon: {fileID: 0}
  m_NavMeshLayer: 0
  m_StaticEditorFlags: 0
  m_IsActive: 1
--- !u!4 &400000
Transform:
  m_ObjectHideFlags: 1
  m_PrefabParentObject: {fileID: 0}
  m_PrefabInternal: {fileID: 100100000}
  m_GameObject: {fileID: 100000}
  m_LocalRotation: {x: 0, y: 0, z: 0, w: 1}
  m_LocalPosition: {x: 0, y: 0, z: 0}
  m_LocalScale: {x: 1, y: 1, z: 1}
  m_Children: []
  m_Father: {fileID: 0}
--- !u!114 &11400000
MonoBehaviour:
  m_ObjectHideFlags: 1
  m_PrefabParentObject: {fileID: 0}
  m_PrefabInternal: {fileID: 100100000}
  m_GameObject: {fileID: 100000}
  m_Enabled: 1
  m_EditorHideFlags: 0
  m_Script: {fileID: 11500000, guid: 4d0c51bb0b6e93049af5e88f93826e3b, type: 3}
  m_Name: 
  m_EditorClassIdentifier: 
  material: {fileID: 2100000, guid: 218f17e39f01a40aa95f7f56788510b9, type: 2}
  sprites:
  - name: icon_coin
    outer:
      serializedVersion: 2
      x: 144
      y: 8
      width: 36
      height: 41
    inner:
      serializedVersion: 2
      x: 144
      y: 8
      width: 36
      height: 41
    rotated: 0
    paddingLeft: 0
    paddingRight: 0
    paddingTop: 0
    paddingBottom: 0
  - name: arrow_down
    outer:
      serializedVersion: 2
      x: 986
      y: 967
      width: 37
      height: 25
    inner:
      serializedVersion: 2
      x: 986
      y: 967
      width: 37
      height: 25
    rotated: 0
    paddingLeft: 0
    paddingRight: 0
    paddingTop: 0
    paddingBottom: 0
  - name: icon_energy
    outer:
      serializedVersion: 2
      x: 999
      y: 711
      width: 24
      height: 37
    inner:
      serializedVersion: 2
      x: 999
      y: 711
      width: 24
      height: 37
    rotated: 0
    paddingLeft: 0
    paddingRight: .0416666679
    paddingTop: 0
    paddingBottom: 0
  - name: icon_magnifier
    outer:
      serializedVersion: 2
      x: 924
      y: 415
      width: 63
      height: 63
    inner:
      serializedVersion: 2
      x: 924
      y: 415
      width: 63
      height: 63
    rotated: 0
    paddingLeft: 0
    paddingRight: 0
    paddingTop: 0
    paddingBottom: 0
  - name: icon_finish
    outer:
      serializedVersion: 2
      x: 962
      y: 870
      width: 57
      height: 55
    inner:
      serializedVersion: 2
      x: 962
      y: 870
      width: 57
      height: 55
    rotated: 0
    paddingLeft: .0175438598
    paddingRight: 0
    paddingTop: 0
    paddingBottom: 0
  - name: icon_OK
    outer:
      serializedVersion: 2
      x: 964
      y: 785
      width: 58
      height: 53
    inner:
      serializedVersion: 2
      x: 964
      y: 785
      width: 58
      height: 53
    rotated: 0
    paddingLeft: 0
    paddingRight: 0
    paddingTop: 0
    paddingBottom: 0
  - name: arrow_turn_R
    outer:
      serializedVersion: 2
      x: 190
      y: 7
      width: 64
      height: 51
    inner:
      serializedVersion: 2
      x: 190
      y: 7
      width: 64
      height: 51
    rotated: 0
    paddingLeft: 0
    paddingRight: 0
    paddingTop: 0
    paddingBottom: 0
  - name: closet_menu_bg
    outer:
      serializedVersion: 2
      x: 0
      y: 147
      width: 189
      height: 877
    inner:
      serializedVersion: 2
      x: 50
      y: 197
      width: 89
      height: 777
    rotated: 0
    paddingLeft: 0
    paddingRight: 0
    paddingTop: .00114025082
    paddingBottom: .0114025082
  - name: arrow_turn_L
    outer:
      serializedVersion: 2
      x: 734
      y: 697
      width: 64
      height: 51
    inner:
      serializedVersion: 2
      x: 734
      y: 697
      width: 64
      height: 51
    rotated: 0
    paddingLeft: 0
    paddingRight: 0
    paddingTop: 0
    paddingBottom: 0
  - name: icon_reset
    outer:
      serializedVersion: 2
      x: 568
      y: 315
      width: 59
      height: 52
    inner:
      serializedVersion: 2
      x: 568
      y: 315
      width: 59
      height: 52
    rotated: 0
    paddingLeft: 0
    paddingRight: 0
    paddingTop: 0
    paddingBottom: 0
  - name: icon_cart
    outer:
      serializedVersion: 2
      x: 615
      y: 845
      width: 103
      height: 80
    inner:
      serializedVersion: 2
      x: 615
      y: 845
      width: 103
      height: 80
    rotated: 0
    paddingLeft: 0
    paddingRight: 0
    paddingTop: 0
    paddingBottom: 0
  - name: price_bg
    outer:
      serializedVersion: 2
      x: 420
      y: 553
      width: 149
      height: 45
    inner:
      serializedVersion: 2
      x: 420
      y: 553
      width: 149
      height: 45
    rotated: 0
    paddingLeft: 0
    paddingRight: 0
    paddingTop: 0
    paddingBottom: 0
  - name: arrow_up
    outer:
      serializedVersion: 2
      x: 986
      y: 942
      width: 37
      height: 24
    inner:
      serializedVersion: 2
      x: 986
      y: 942
      width: 37
      height: 24
    rotated: 0
    paddingLeft: 0
    paddingRight: 0
    paddingTop: 0
    paddingBottom: 0
  - name: icon_gem
    outer:
      serializedVersion: 2
      x: 719
      y: 840
      width: 41
      height: 35
    inner:
      serializedVersion: 2
      x: 719
      y: 840
      width: 41
      height: 35
    rotated: 0
    paddingLeft: 0
    paddingRight: .024390243
    paddingTop: 0
    paddingBottom: 0
  - name: items_bg
    outer:
      serializedVersion: 2
      x: 0
      y: 5
      width: 143
      height: 141
    inner:
      serializedVersion: 2
      x: 0
      y: 5
      width: 143
      height: 141
    rotated: 0
    paddingLeft: 0
    paddingRight: 0
    paddingTop: 0
    paddingBottom: 0
  - name: popUp_hairColor
    outer:
      serializedVersion: 2
      x: 190
      y: 839
      width: 424
      height: 185
    inner:
      serializedVersion: 2
      x: 190
      y: 839
      width: 424
      height: 185
    rotated: 0
    paddingLeft: 0
    paddingRight: 0
    paddingTop: 0
    paddingBottom: 0
  - name: closet_11_coat_b
    outer:
      serializedVersion: 2
      x: 305
      y: 419
      width: 114
      height: 89
    inner:
      serializedVersion: 2
      x: 305
      y: 419
      width: 114
      height: 89
    rotated: 0
    paddingLeft: 0
    paddingRight: 0
    paddingTop: 0
    paddingBottom: 0
  - name: closet_17_handBags_a
    outer:
      serializedVersion: 2
      x: 716
      y: 479
      width: 73
      height: 73
    inner:
      serializedVersion: 2
      x: 716
      y: 479
      width: 73
      height: 73
    rotated: 0
    paddingLeft: 0
    paddingRight: 0
    paddingTop: 0
    paddingBottom: 0
  - name: closet_10_dress_a
    outer:
      serializedVersion: 2
      x: 790
      y: 479
      width: 73
      height: 73
    inner:
      serializedVersion: 2
      x: 790
      y: 479
      width: 73
      height: 73
    rotated: 0
    paddingLeft: 0
    paddingRight: 0
    paddingTop: 0
    paddingBottom: 0
  - name: closet_04_eyeBrows_a
    outer:
      serializedVersion: 2
      x: 938
      y: 479
      width: 73
      height: 73
    inner:
      serializedVersion: 2
      x: 938
      y: 479
      width: 73
      height: 73
    rotated: 0
    paddingLeft: 0
    paddingRight: 0
    paddingTop: 0
    paddingBottom: 0
  - name: closet_01_frontHair_a
    outer:
      serializedVersion: 2
      x: 494
      y: 405
      width: 73
      height: 73
    inner:
      serializedVersion: 2
      x: 494
      y: 405
      width: 73
      height: 73
    rotated: 0
    paddingLeft: 0
    paddingRight: 0
    paddingTop: 0
    paddingBottom: 0
  - name: closet_13_bottom_a
    outer:
      serializedVersion: 2
      x: 494
      y: 331
      width: 73
      height: 73
    inner:
      serializedVersion: 2
      x: 494
      y: 331
      width: 73
      height: 73
    rotated: 0
    paddingLeft: 0
    paddingRight: 0
    paddingTop: 0
    paddingBottom: 0
  - name: closet_14_shoes_b
    outer:
      serializedVersion: 2
      x: 190
      y: 419
      width: 114
      height: 89
    inner:
      serializedVersion: 2
      x: 190
      y: 419
      width: 114
      height: 89
    rotated: 0
    paddingLeft: 0
    paddingRight: 0
    paddingTop: 0
    paddingBottom: 0
  - name: closet_14_shoes_a
    outer:
      serializedVersion: 2
      x: 494
      y: 257
      width: 73
      height: 73
    inner:
      serializedVersion: 2
      x: 494
      y: 257
      width: 73
      height: 73
    rotated: 0
    paddingLeft: 0
    paddingRight: 0
    paddingTop: 0
    paddingBottom: 0
  - name: closet_15_underwear_a
    outer:
      serializedVersion: 2
      x: 494
      y: 183
      width: 73
      height: 73
    inner:
      serializedVersion: 2
      x: 494
      y: 183
      width: 73
      height: 73
    rotated: 0
    paddingLeft: 0
    paddingRight: 0
    paddingTop: 0
    paddingBottom: 0
  - name: closet_02_backlHair_a
    outer:
      serializedVersion: 2
      x: 494
      y: 109
      width: 73
      height: 73
    inner:
      serializedVersion: 2
      x: 494
      y: 109
      width: 73
      height: 73
    rotated: 0
    paddingLeft: 0
    paddingRight: 0
    paddingTop: 0
    paddingBottom: 0
  - name: closet_12_accessories_a
    outer:
      serializedVersion: 2
      x: 494
      y: 35
      width: 73
      height: 73
    inner:
      serializedVersion: 2
      x: 494
      y: 35
      width: 73
      height: 73
    rotated: 0
    paddingLeft: 0
    paddingRight: 0
    paddingTop: 0
    paddingBottom: 0
  - name: closet_13_bottom_b
    outer:
      serializedVersion: 2
      x: 305
      y: 599
      width: 114
      height: 89
    inner:
      serializedVersion: 2
      x: 305
      y: 599
      width: 114
      height: 89
    rotated: 0
    paddingLeft: 0
    paddingRight: 0
    paddingTop: 0
    paddingBottom: 0
  - name: closet_10_dress_b
    outer:
      serializedVersion: 2
      x: 305
      y: 509
      width: 114
      height: 89
    inner:
      serializedVersion: 2
      x: 305
      y: 509
      width: 114
      height: 89
    rotated: 0
    paddingLeft: 0
    paddingRight: 0
    paddingTop: 0
    paddingBottom: 0
  - name: closet_11_coat_a
    outer:
      serializedVersion: 2
      x: 716
      y: 405
      width: 73
      height: 73
    inner:
      serializedVersion: 2
      x: 716
      y: 405
      width: 73
      height: 73
    rotated: 0
    paddingLeft: 0
    paddingRight: 0
    paddingTop: 0
    paddingBottom: 0
  - name: closet_06_eyesBall_a
    outer:
      serializedVersion: 2
      x: 642
      y: 405
      width: 73
      height: 73
    inner:
      serializedVersion: 2
      x: 642
      y: 405
      width: 73
      height: 73
    rotated: 0
    paddingLeft: 0
    paddingRight: 0
    paddingTop: 0
    paddingBottom: 0
  - name: closet_03_skinColor_a
    outer:
      serializedVersion: 2
      x: 568
      y: 405
      width: 73
      height: 73
    inner:
      serializedVersion: 2
      x: 568
      y: 405
      width: 73
      height: 73
    rotated: 0
    paddingLeft: 0
    paddingRight: 0
    paddingTop: 0
    paddingBottom: 0
  - name: closet_15_underwear_b
    outer:
      serializedVersion: 2
      x: 190
      y: 59
      width: 114
      height: 89
    inner:
      serializedVersion: 2
      x: 190
      y: 59
      width: 114
      height: 89
    rotated: 0
    paddingLeft: 0
    paddingRight: 0
    paddingTop: 0
    paddingBottom: 0
  - name: closet_17_handBags_b
    outer:
      serializedVersion: 2
      x: 190
      y: 149
      width: 114
      height: 89
    inner:
      serializedVersion: 2
      x: 190
      y: 149
      width: 114
      height: 89
    rotated: 0
    paddingLeft: 0
    paddingRight: 0
    paddingTop: 0
    paddingBottom: 0
  - name: closet_06_eyesBall_b
    outer:
      serializedVersion: 2
      x: 190
      y: 239
      width: 114
      height: 89
    inner:
      serializedVersion: 2
      x: 190
      y: 239
      width: 114
      height: 89
    rotated: 0
    paddingLeft: 0
    paddingRight: 0
    paddingTop: 0
    paddingBottom: 0
  - name: closet_02_backlHair_b
    outer:
      serializedVersion: 2
      x: 190
      y: 329
      width: 114
      height: 89
    inner:
      serializedVersion: 2
      x: 190
      y: 329
      width: 114
      height: 89
    rotated: 0
    paddingLeft: 0
    paddingRight: 0
    paddingTop: 0
    paddingBottom: 0
  - name: closet_03_skinColor_b
    outer:
      serializedVersion: 2
      x: 190
      y: 509
      width: 114
      height: 89
    inner:
      serializedVersion: 2
      x: 190
      y: 509
      width: 114
      height: 89
    rotated: 0
    paddingLeft: 0
    paddingRight: 0
    paddingTop: 0
    paddingBottom: 0
  - name: closet_01_frontHair_b
    outer:
      serializedVersion: 2
      x: 190
      y: 599
      width: 114
      height: 89
    inner:
      serializedVersion: 2
      x: 190
      y: 599
      width: 114
      height: 89
    rotated: 0
    paddingLeft: 0
    paddingRight: 0
    paddingTop: 0
    paddingBottom: 0
  - name: closet_04_eyeBrows_b
    outer:
      serializedVersion: 2
      x: 849
      y: 749
      width: 114
      height: 89
    inner:
      serializedVersion: 2
      x: 849
      y: 749
      width: 114
      height: 89
    rotated: 0
    paddingLeft: 0
    paddingRight: 0
    paddingTop: 0
    paddingBottom: 0
  - name: closet_08_lips_a
    outer:
      serializedVersion: 2
      x: 864
      y: 479
      width: 73
      height: 73
    inner:
      serializedVersion: 2
      x: 864
      y: 479
      width: 73
      height: 73
    rotated: 0
    paddingLeft: 0
    paddingRight: 0
    paddingTop: 0
    paddingBottom: 0
  - name: closet_09_top_b
    outer:
      serializedVersion: 2
      x: 734
      y: 749
      width: 114
      height: 89
    inner:
      serializedVersion: 2
      x: 734
      y: 749
      width: 114
      height: 89
    rotated: 0
    paddingLeft: 0
    paddingRight: 0
    paddingTop: 0
    paddingBottom: 0
  - name: closet_16_garter_b
    outer:
      serializedVersion: 2
      x: 619
      y: 749
      width: 114
      height: 89
    inner:
      serializedVersion: 2
      x: 619
      y: 749
      width: 114
      height: 89
    rotated: 0
    paddingLeft: 0
    paddingRight: 0
    paddingTop: 0
    paddingBottom: 0
  - name: closet_05_eyeMakeup_a
    outer:
      serializedVersion: 2
      x: 642
      y: 479
      width: 73
      height: 73
    inner:
      serializedVersion: 2
      x: 642
      y: 479
      width: 73
      height: 73
    rotated: 0
    paddingLeft: 0
    paddingRight: 0
    paddingTop: 0
    paddingBottom: 0
  - name: closet_09_top_a
    outer:
      serializedVersion: 2
      x: 568
      y: 479
      width: 73
      height: 73
    inner:
      serializedVersion: 2
      x: 568
      y: 479
      width: 73
      height: 73
    rotated: 0
    paddingLeft: 0
    paddingRight: 0
    paddingTop: 0
    paddingBottom: 0
  - name: closet_12_accessories_b
    outer:
      serializedVersion: 2
      x: 305
      y: 329
      width: 114
      height: 89
    inner:
      serializedVersion: 2
      x: 305
      y: 329
      width: 114
      height: 89
    rotated: 0
    paddingLeft: 0
    paddingRight: 0
    paddingTop: 0
    paddingBottom: 0
  - name: closet_05_eyeMakeup_b
    outer:
      serializedVersion: 2
      x: 305
      y: 149
      width: 114
      height: 89
    inner:
      serializedVersion: 2
      x: 305
      y: 149
      width: 114
      height: 89
    rotated: 0
    paddingLeft: 0
    paddingRight: 0
    paddingTop: 0
    paddingBottom: 0
  - name: closet_08_lips_b
    outer:
      serializedVersion: 2
      x: 305
      y: 59
      width: 114
      height: 89
    inner:
      serializedVersion: 2
      x: 305
      y: 59
      width: 114
      height: 89
    rotated: 0
    paddingLeft: 0
    paddingRight: 0
    paddingTop: 0
    paddingBottom: 0
  - name: closet_07_rouge_a
    outer:
      serializedVersion: 2
      x: 420
      y: 31
      width: 73
      height: 73
    inner:
      serializedVersion: 2
      x: 420
      y: 31
      width: 73
      height: 73
    rotated: 0
    paddingLeft: 0
    paddingRight: 0
    paddingTop: 0
    paddingBottom: 0
  - name: closet_07_rouge_b
    outer:
      serializedVersion: 2
      x: 420
      y: 599
      width: 114
      height: 89
    inner:
      serializedVersion: 2
      x: 420
      y: 599
      width: 114
      height: 89
    rotated: 0
    paddingLeft: 0
    paddingRight: 0
    paddingTop: 0
    paddingBottom: 0
  - name: closet_16_garter_a
    outer:
      serializedVersion: 2
      x: 420
      y: 179
      width: 73
      height: 73
    inner:
      serializedVersion: 2
      x: 420
      y: 179
      width: 73
      height: 73
    rotated: 0
    paddingLeft: 0
    paddingRight: 0
    paddingTop: 0
    paddingBottom: 0
  - name: item_locked_bg
    outer:
      serializedVersion: 2
      x: 190
      y: 689
      width: 152
      height: 149
    inner:
      serializedVersion: 2
      x: 190
      y: 689
      width: 152
      height: 149
    rotated: 0
    paddingLeft: 0
    paddingRight: .00657894742
    paddingTop: 0
    paddingBottom: 0
  - name: item_choose
    outer:
      serializedVersion: 2
      x: 343
      y: 697
      width: 143
      height: 141
    inner:
      serializedVersion: 2
      x: 343
      y: 697
      width: 143
      height: 141
    rotated: 0
    paddingLeft: 0
    paddingRight: 0
    paddingTop: 0
    paddingBottom: 0
  - name: item_locked
    outer:
      serializedVersion: 2
      x: 144
      y: 94
      width: 44
      height: 52
    inner:
      serializedVersion: 2
      x: 144
      y: 94
      width: 44
      height: 52
    rotated: 0
    paddingLeft: 0
    paddingRight: 0
    paddingTop: 0
    paddingBottom: 0
  - name: icon_popUp_shopping
    outer:
      serializedVersion: 2
      x: 487
      y: 725
      width: 131
      height: 113
    inner:
      serializedVersion: 2
      x: 487
      y: 725
      width: 131
      height: 113
    rotated: 0
    paddingLeft: 0
    paddingRight: 0
    paddingTop: 0
    paddingBottom: 0
  - name: btn_buy
    outer:
      serializedVersion: 2
      x: 305
      y: 21
      width: 85
      height: 37
    inner:
      serializedVersion: 2
      x: 305
      y: 21
      width: 85
      height: 37
    rotated: 0
    paddingLeft: 0
    paddingRight: 0
    paddingTop: 0
    paddingBottom: 0
  - name: item_new
    outer:
      serializedVersion: 2
      x: 619
      y: 710
      width: 105
      height: 38
    inner:
      serializedVersion: 2
      x: 619
      y: 710
      width: 105
      height: 38
    rotated: 0
    paddingLeft: 0
    paddingRight: 0
    paddingTop: 0
    paddingBottom: 0
  - name: item_discount
    outer:
      serializedVersion: 2
      x: 790
      y: 441
      width: 133
      height: 37
    inner:
      serializedVersion: 2
      x: 790
      y: 441
      width: 133
      height: 37
    rotated: 0
    paddingLeft: 0
    paddingRight: 0
    paddingTop: 0
    paddingBottom: 0
  - name: item_priceOffLine
    outer:
      serializedVersion: 2
      x: 849
      y: 703
      width: 149
      height: 45
    inner:
      serializedVersion: 2
      x: 849
      y: 703
      width: 149
      height: 45
    rotated: 0
    paddingLeft: 0
    paddingRight: 0
    paddingTop: 0
    paddingBottom: 0
  - name: clothIndex_sexy
    outer:
      serializedVersion: 2
      x: 420
      y: 475
      width: 73
      height: 77
    inner:
      serializedVersion: 2
      x: 420
      y: 475
      width: 73
      height: 77
    rotated: 0
    paddingLeft: 0
    paddingRight: 0
    paddingTop: 0
    paddingBottom: 0
  - name: clothIndex_bg
    outer:
      serializedVersion: 2
      x: 570
      y: 558
      width: 142
      height: 40
    inner:
      serializedVersion: 2
      x: 570
      y: 558
      width: 142
      height: 40
    rotated: 0
    paddingLeft: 0
    paddingRight: 0
    paddingTop: 0
    paddingBottom: 0
  - name: clothIndex_lively
    outer:
      serializedVersion: 2
      x: 887
      y: 841
      width: 74
      height: 84
    inner:
      serializedVersion: 2
      x: 887
      y: 841
      width: 74
      height: 84
    rotated: 0
    paddingLeft: 0
    paddingRight: 0
    paddingTop: 0
    paddingBottom: 0
  - name: hairColorSwatchBoard
    outer:
      serializedVersion: 2
      x: 615
      y: 926
      width: 370
      height: 98
    inner:
      serializedVersion: 2
      x: 615
      y: 926
      width: 370
      height: 98
    rotated: 0
    paddingLeft: .189189196
    paddingRight: .170270264
    paddingTop: 0
    paddingBottom: 0
  - name: blankWhiteSquare
    outer:
      serializedVersion: 2
      x: 799
      y: 701
      width: 47
      height: 47
    inner:
      serializedVersion: 2
      x: 799
      y: 701
      width: 47
      height: 47
    rotated: 0
    paddingLeft: 0
    paddingRight: 0
    paddingTop: 0
    paddingBottom: 0
  - name: clothIndex_sexy_small
    outer:
      serializedVersion: 2
      x: 761
      y: 850
      width: 29
      height: 25
    inner:
      serializedVersion: 2
      x: 761
      y: 850
      width: 29
      height: 25
    rotated: 0
    paddingLeft: 0
    paddingRight: 0
    paddingTop: 0
    paddingBottom: 0
  - name: clothIndex_lively_small
    outer:
      serializedVersion: 2
      x: 986
      y: 993
      width: 31
      height: 31
    inner:
      serializedVersion: 2
      x: 986
      y: 993
      width: 31
      height: 31
    rotated: 0
    paddingLeft: 0
    paddingRight: 0
    paddingTop: 0
    paddingBottom: 0
  - name: colour_rang_bar_b
    outer:
      serializedVersion: 2
      x: 568
      y: 368
      width: 261
      height: 16
    inner:
      serializedVersion: 2
      x: 568
      y: 368
      width: 261
      height: 16
    rotated: 0
    paddingLeft: .00383141753
    paddingRight: .00766283507
    paddingTop: .0625
    paddingBottom: .125
  - name: colour_rang_bar_button_a
    outer:
      serializedVersion: 2
      x: 144
      y: 50
      width: 44
      height: 43
    inner:
      serializedVersion: 2
      x: 144
      y: 50
      width: 44
      height: 43
    rotated: 0
    paddingLeft: 0
    paddingRight: 0
    paddingTop: 0
    paddingBottom: .0232558139
  - name: colour_rang_bar_a
    outer:
      serializedVersion: 2
      x: 568
      y: 385
      width: 264
      height: 19
    inner:
      serializedVersion: 2
      x: 568
      y: 385
      width: 264
      height: 19
    rotated: 0
    paddingLeft: 0
    paddingRight: 0
    paddingTop: 0
    paddingBottom: 0
  - name: closet_22_shortsock_a
    outer:
      serializedVersion: 2
      x: 420
      y: 253
      width: 73
      height: 73
    inner:
      serializedVersion: 2
      x: 420
      y: 253
      width: 73
      height: 73
    rotated: 0
    paddingLeft: 0
    paddingRight: 0
    paddingTop: 0
    paddingBottom: 0
  - name: closet_18_glasses_b
    outer:
      serializedVersion: 2
      x: 650
      y: 599
      width: 114
      height: 89
    inner:
      serializedVersion: 2
      x: 650
      y: 599
      width: 114
      height: 89
    rotated: 0
    paddingLeft: 0
    paddingRight: 0
    paddingTop: 0
    paddingBottom: 0
  - name: closet_22_shortsock_b
    outer:
      serializedVersion: 2
      x: 535
      y: 599
      width: 114
      height: 89
    inner:
      serializedVersion: 2
      x: 535
      y: 599
      width: 114
      height: 89
    rotated: 0
    paddingLeft: 0
    paddingRight: 0
    paddingTop: 0
    paddingBottom: 0
  - name: closet_18_glasses_a
    outer:
      serializedVersion: 2
      x: 420
      y: 105
      width: 73
      height: 73
    inner:
      serializedVersion: 2
      x: 420
      y: 105
      width: 73
      height: 73
    rotated: 0
    paddingLeft: 0
    paddingRight: 0
    paddingTop: 0
    paddingBottom: 0
  - name: closet_19_crown_a
    outer:
      serializedVersion: 2
      x: 420
      y: 401
      width: 73
      height: 73
    inner:
      serializedVersion: 2
      x: 420
      y: 401
      width: 73
      height: 73
    rotated: 0
    paddingLeft: 0
    paddingRight: 0
    paddingTop: 0
    paddingBottom: 0
  - name: closet_21_underwearL_a
    outer:
      serializedVersion: 2
      x: 494
      y: 479
      width: 73
      height: 73
    inner:
      serializedVersion: 2
      x: 494
      y: 479
      width: 73
      height: 73
    rotated: 0
    paddingLeft: 0
    paddingRight: 0
    paddingTop: 0
    paddingBottom: 0
  - name: closet_19_crown_b
    outer:
      serializedVersion: 2
      x: 305
      y: 239
      width: 114
      height: 89
    inner:
      serializedVersion: 2
      x: 305
      y: 239
      width: 114
      height: 89
    rotated: 0
    paddingLeft: 0
    paddingRight: 0
    paddingTop: 0
    paddingBottom: 0
  - name: closet_21_underwearL_b
    outer:
      serializedVersion: 2
      x: 765
      y: 599
      width: 114
      height: 89
    inner:
      serializedVersion: 2
      x: 765
      y: 599
      width: 114
      height: 89
    rotated: 0
    paddingLeft: 0
    paddingRight: 0
    paddingTop: 0
    paddingBottom: 0
  - name: closet_20_underwear_a
    outer:
      serializedVersion: 2
      x: 420
      y: 327
      width: 73
      height: 73
    inner:
      serializedVersion: 2
      x: 420
      y: 327
      width: 73
      height: 73
    rotated: 0
    paddingLeft: 0
    paddingRight: 0
    paddingTop: 0
    paddingBottom: 0
  - name: closet_20_underwear_b
    outer:
      serializedVersion: 2
      x: 880
      y: 599
      width: 114
      height: 89
    inner:
      serializedVersion: 2
      x: 880
      y: 599
      width: 114
      height: 89
    rotated: 0
    paddingLeft: 0
    paddingRight: 0
    paddingTop: 0
    paddingBottom: 0
  - name: items_name_bg
    outer:
      serializedVersion: 2
      x: 713
      y: 573
      width: 204
      height: 25
    inner:
      serializedVersion: 2
      x: 713
      y: 573
      width: 204
      height: 25
    rotated: 0
    paddingLeft: 0
    paddingRight: 0
    paddingTop: 0
    paddingBottom: 0
  - name: icon_NO
    outer:
      serializedVersion: 2
      x: 568
      y: 260
      width: 50
      height: 54
    inner:
      serializedVersion: 2
      x: 568
      y: 260
      width: 50
      height: 54
    rotated: 0
    paddingLeft: .0599999987
    paddingRight: .0599999987
    paddingTop: .0370370373
    paddingBottom: 0
  - name: downloadUI_arrow
    outer:
      serializedVersion: 2
      x: 791
      y: 853
      width: 23
      height: 22
    inner:
      serializedVersion: 2
      x: 791
      y: 853
      width: 23
      height: 22
    rotated: 0
    paddingLeft: .347826093
    paddingRight: .391304344
    paddingTop: .181818187
    paddingBottom: .590909064
  - name: downloadUI_BG
    outer:
      serializedVersion: 2
      x: 719
      y: 876
      width: 167
      height: 49
    inner:
      serializedVersion: 2
      x: 719
      y: 876
      width: 167
      height: 49
    rotated: 0
    paddingLeft: .0179640725
    paddingRight: .0119760484
    paddingTop: .0612244904
    paddingBottom: .0408163257
  - name: downloadUI_tray
    outer:
      serializedVersion: 2
      x: 986
      y: 927
      width: 33
      height: 14
    inner:
      serializedVersion: 2
      x: 986
      y: 927
      width: 33
      height: 14
    rotated: 0
    paddingLeft: .0909090936
    paddingRight: .121212125
    paddingTop: 1.57142854
    paddingBottom: .214285716
  mCoordinates: 0
  mPixelSize: 1
  mReplacement: {fileID: 0}
--- !u!1001 &100100000
Prefab:
  m_ObjectHideFlags: 1
  serializedVersion: 2
  m_Modification:
    m_TransformParent: {fileID: 0}
    m_Modifications: []
    m_RemovedComponents: []
  m_ParentPrefab: {fileID: 0}
  m_RootGameObject: {fileID: 100000}
  m_IsPrefabParent: 1
  m_IsExploded: 1
