%YAML 1.1
%TAG !u! tag:unity3d.com,2011:
--- !u!74 &7400000
AnimationClip:
  m_ObjectHideFlags: 0
  m_PrefabParentObject: {fileID: 0}
  m_PrefabInternal: {fileID: 0}
  m_Name: visitR_idle
  serializedVersion: 3
  m_AnimationType: 1
  m_Compressed: 0
  m_RotationCurves: []
  m_CompressedRotationCurves: []
  m_PositionCurves: []
  m_ScaleCurves: []
  m_FloatCurves:
  - curve:
      serializedVersion: 2
      m_Curve:
      - time: 0
        value: 0
        inSlope: 0
        outSlope: 0
        tangentMode: 0
      - time: 2.20000005
        value: 0
        inSlope: 0
        outSlope: 0
        tangentMode: 0
      - time: 2.26666665
        value: 85
        inSlope: 0
        outSlope: 0
        tangentMode: 0
      - time: 2.29999995
        value: 85
        inSlope: 0
        outSlope: 0
        tangentMode: 0
      - time: 2.36666656
        value: 0
        inSlope: 0
        outSlope: 0
        tangentMode: 0
      - time: 5
        value: 0
        inSlope: 0
        outSlope: 0
        tangentMode: 0
      m_PreInfinity: 2
      m_PostInfinity: 2
    attribute: Percent
    path: 
    classID: 114
    script: {fileID: 11500000, guid: 63324c7d0af811d488d158395914eea8, type: 3}
  - curve:
      serializedVersion: 2
      m_Curve:
      - time: 0
        value: 0
        inSlope: 0
        outSlope: 0
        tangentMode: 0
      - time: 2.20000005
        value: 0
        inSlope: 0
        outSlope: 0
        tangentMode: 0
      - time: 2.26666665
        value: 85
        inSlope: 0
        outSlope: 0
        tangentMode: 0
      - time: 2.29999995
        value: 85
        inSlope: 0
        outSlope: 0
        tangentMode: 0
      - time: 2.36666656
        value: 0
        inSlope: 0
        outSlope: 0
        tangentMode: 0
      - time: 5
        value: 0
        inSlope: 0
        outSlope: 0
        tangentMode: 0
      m_PreInfinity: 2
      m_PostInfinity: 2
    attribute: Percent1
    path: 
    classID: 114
    script: {fileID: 11500000, guid: 63324c7d0af811d488d158395914eea8, type: 3}
  - curve:
      serializedVersion: 2
      m_Curve:
      - time: 0
        value: 0
        inSlope: 0
        outSlope: 0
        tangentMode: 0
      - time: .833333313
        value: 0
        inSlope: 0
        outSlope: 0
        tangentMode: 0
      - time: 1.10000002
        value: 30
        inSlope: 73.25
        outSlope: 73.25
        tangentMode: 10
      - time: 1.29999995
        value: 36.7999992
        inSlope: -51.142849
        outSlope: -51.142849
        tangentMode: 10
      - time: 1.5333333
        value: 5
        inSlope: 26.8571243
        outSlope: 26.8571243
        tangentMode: 10
      - time: 1.73333335
        value: 43
        inSlope: 80.9999771
        outSlope: 80.9999771
        tangentMode: 10
      - time: 1.93333328
        value: 37.4000015
        inSlope: -77.4999542
        outSlope: -77.4999542
        tangentMode: 10
      - time: 2.13333344
        value: 12
        inSlope: 24.0001335
        outSlope: 24.0001335
        tangentMode: 10
      - time: 2.33333325
        value: 47
        inSlope: 12.5000992
        outSlope: 12.5000992
        tangentMode: 10
      - time: 2.5333333
        value: 17
        inSlope: -42.4999924
        outSlope: -42.4999924
        tangentMode: 10
      - time: 2.73333335
        value: 30
        inSlope: -2.11538696
        outSlope: -2.11538696
        tangentMode: 10
      - time: 3.16666675
        value: 0
        inSlope: 0
        outSlope: 0
        tangentMode: 0
      - time: 5
        value: 0
        inSlope: 0
        outSlope: 0
        tangentMode: 0
      m_PreInfinity: 2
      m_PostInfinity: 2
    attribute: Percent2
    path: 
    classID: 114
    script: {fileID: 11500000, guid: 63324c7d0af811d488d158395914eea8, type: 3}
  - curve:
      serializedVersion: 2
      m_Curve:
      - time: 0
        value: 100
        inSlope: 0
        outSlope: 0
        tangentMode: 0
      - time: .833333313
        value: 100
        inSlope: 0
        outSlope: 0
        tangentMode: 0
      - time: 1.10000002
        value: 70
        inSlope: -42.4038391
        outSlope: -42.4038391
        tangentMode: 10
      - time: 1.5333333
        value: 82
        inSlope: -48.6538315
        outSlope: -48.6538315
        tangentMode: 10
      - time: 1.73333335
        value: 57
        inSlope: -38.7499924
        outSlope: -38.7499924
        tangentMode: 10
      - time: 2.13333344
        value: 76
        inSlope: -18.7500477
        outSlope: -18.7500477
        tangentMode: 10
      - time: 2.33333325
        value: 59
        inSlope: -50.0000381
        outSlope: -50.0000381
        tangentMode: 10
      - time: 2.5333333
        value: 56
        inSlope: 27.4999943
        outSlope: 27.4999943
        tangentMode: 10
      - time: 2.73333335
        value: 70
        inSlope: 69.6153717
        outSlope: 69.6153717
        tangentMode: 10
      - time: 3.16666675
        value: 100
        inSlope: 0
        outSlope: 0
        tangentMode: 0
      - time: 3.5
        value: 47
        inSlope: -117.000008
        outSlope: -117.000008
        tangentMode: 10
      - time: 3.70000005
        value: 32
        inSlope: 7.50004959
        outSlope: 7.50004959
        tangentMode: 10
      - time: 3.86666656
        value: 47
        inSlope: 6.48498535e-05
        outSlope: 6.48498535e-05
        tangentMode: 10
      - time: 4.0333333
        value: 32
        inSlope: 6.48498535e-05
        outSlope: 6.48498535e-05
        tangentMode: 10
      - time: 4.19999981
        value: 47
        inSlope: 78.1250305
        outSlope: 78.1250305
        tangentMode: 10
      - time: 5
        value: 100
        inSlope: 0
        outSlope: 0
        tangentMode: 0
      m_PreInfinity: 2
      m_PostInfinity: 2
    attribute: Percent3
    path: 
    classID: 114
    script: {fileID: 11500000, guid: 63324c7d0af811d488d158395914eea8, type: 3}
  - curve:
      serializedVersion: 2
      m_Curve:
      - time: 0
        value: 0
        inSlope: 0
        outSlope: 0
        tangentMode: 0
      - time: .833333313
        value: 0
        inSlope: 0
        outSlope: 0
        tangentMode: 0
      - time: 1.10000002
        value: 30
        inSlope: 13.7499771
        outSlope: 13.7499771
        tangentMode: 10
      - time: 1.29999995
        value: 13
        inSlope: -46.7857285
        outSlope: -46.7857285
        tangentMode: 10
      - time: 1.5333333
        value: 11
        inSlope: 18.2142792
        outSlope: 18.2142792
        tangentMode: 10
      - time: 1.73333335
        value: 20
        inSlope: 4.74998665
        outSlope: 4.74998665
        tangentMode: 10
      - time: 1.93333328
        value: 12.8999996
        inSlope: -22.5000038
        outSlope: -22.5000038
        tangentMode: 10
      - time: 2.13333344
        value: 11
        inSlope: 42.7500496
        outSlope: 42.7500496
        tangentMode: 10
      - time: 2.33333325
        value: 30
        inSlope: 45.0000458
        outSlope: 45.0000458
        tangentMode: 10
      - time: 2.5333333
        value: 29
        inSlope: 0
        outSlope: 0
        tangentMode: 10
      - time: 2.73333335
        value: 30
        inSlope: -32.1153793
        outSlope: -32.1153793
        tangentMode: 10
      - time: 3.16666675
        value: 0
        inSlope: 0
        outSlope: 0
        tangentMode: 0
      - time: 5
        value: 0
        inSlope: 0
        outSlope: 0
        tangentMode: 0
      m_PreInfinity: 2
      m_PostInfinity: 2
    attribute: Percent4
    path: 
    classID: 114
    script: {fileID: 11500000, guid: 63324c7d0af811d488d158395914eea8, type: 3}
  - curve:
      serializedVersion: 2
      m_Curve:
      - time: 0
        value: 0
        inSlope: 0
        outSlope: 0
        tangentMode: 0
      - time: 3.16666675
        value: 0
        inSlope: 0
        outSlope: 0
        tangentMode: 0
      - time: 3.5
        value: 58
        inSlope: 119.500015
        outSlope: 119.500015
        tangentMode: 10
      - time: 3.70000005
        value: 71
        inSlope: -6.50004578
        outSlope: -6.50004578
        tangentMode: 10
      - time: 3.86666656
        value: 58
        inSlope: -5.7220459e-05
        outSlope: -5.7220459e-05
        tangentMode: 10
      - time: 4.0333333
        value: 71
        inSlope: -5.7220459e-05
        outSlope: -5.7220459e-05
        tangentMode: 10
      - time: 4.19999981
        value: 58
        inSlope: -113.999992
        outSlope: -113.999992
        tangentMode: 10
      - time: 4.5
        value: 13
        inSlope: -87.9999542
        outSlope: -87.9999542
        tangentMode: 10
      - time: 5
        value: 0
        inSlope: 0
        outSlope: 0
        tangentMode: 0
      m_PreInfinity: 2
      m_PostInfinity: 2
    attribute: Percent5
    path: 
    classID: 114
    script: {fileID: 11500000, guid: 63324c7d0af811d488d158395914eea8, type: 3}
  - curve:
      serializedVersion: 2
      m_Curve:
      - time: 0
        value: 0
        inSlope: 0
        outSlope: 0
        tangentMode: 10
      - time: 5
        value: 0
        inSlope: 0
        outSlope: 0
        tangentMode: 10
      m_PreInfinity: 2
      m_PostInfinity: 2
    attribute: Percent6
    path: 
    classID: 114
    script: {fileID: 11500000, guid: 63324c7d0af811d488d158395914eea8, type: 3}
  - curve:
      serializedVersion: 2
      m_Curve:
      - time: 0
        value: 0
        inSlope: 0
        outSlope: 0
        tangentMode: 10
      - time: 5
        value: 0
        inSlope: 0
        outSlope: 0
        tangentMode: 10
      m_PreInfinity: 2
      m_PostInfinity: 2
    attribute: Percent7
    path: 
    classID: 114
    script: {fileID: 11500000, guid: 63324c7d0af811d488d158395914eea8, type: 3}
  - curve:
      serializedVersion: 2
      m_Curve:
      - time: 0
        value: 0
        inSlope: 0
        outSlope: 0
        tangentMode: 10
      - time: 5
        value: 0
        inSlope: 0
        outSlope: 0
        tangentMode: 10
      m_PreInfinity: 2
      m_PostInfinity: 2
    attribute: Percent8
    path: 
    classID: 114
    script: {fileID: 11500000, guid: 63324c7d0af811d488d158395914eea8, type: 3}
  - curve:
      serializedVersion: 2
      m_Curve:
      - time: 0
        value: 0
        inSlope: 0
        outSlope: 0
        tangentMode: 10
      - time: 5
        value: 0
        inSlope: 0
        outSlope: 0
        tangentMode: 10
      m_PreInfinity: 2
      m_PostInfinity: 2
    attribute: Percent9
    path: 
    classID: 114
    script: {fileID: 11500000, guid: 63324c7d0af811d488d158395914eea8, type: 3}
  - curve:
      serializedVersion: 2
      m_Curve:
      - time: 0
        value: 0
        inSlope: 0
        outSlope: 0
        tangentMode: 10
      - time: 5
        value: 0
        inSlope: 0
        outSlope: 0
        tangentMode: 10
      m_PreInfinity: 2
      m_PostInfinity: 2
    attribute: Percent10
    path: 
    classID: 114
    script: {fileID: 11500000, guid: 63324c7d0af811d488d158395914eea8, type: 3}
  m_SampleRate: 60
  m_WrapMode: 0
  m_Bounds:
    m_Center: {x: 0, y: 0, z: 0}
    m_Extent: {x: 0, y: 0, z: 0}
  m_MuscleClipInfo:
    m_StartTime: 0
    m_StopTime: 1
    m_OrientationOffsetY: 0
    m_Level: 0
    m_CycleOffset: 0
    m_LoopBlend: 0
    m_LoopBlendOrientation: 0
    m_LoopBlendPositionY: 0
    m_LoopBlendPositionXZ: 0
    m_KeepOriginalOrientation: 0
    m_KeepOriginalPositionY: 1
    m_KeepOriginalPositionXZ: 0
    m_HeightFromFeet: 0
    m_Mirror: 0
  m_EditorCurves:
  - curve:
      serializedVersion: 2
      m_Curve:
      - time: 0
        value: 0
        inSlope: 0
        outSlope: 0
        tangentMode: 0
      - time: 2.20000005
        value: 0
        inSlope: 0
        outSlope: 0
        tangentMode: 0
      - time: 2.26666665
        value: 85
        inSlope: 0
        outSlope: 0
        tangentMode: 0
      - time: 2.29999995
        value: 85
        inSlope: 0
        outSlope: 0
        tangentMode: 0
      - time: 2.36666656
        value: 0
        inSlope: 0
        outSlope: 0
        tangentMode: 0
      - time: 5
        value: 0
        inSlope: 0
        outSlope: 0
        tangentMode: 0
      m_PreInfinity: 2
      m_PostInfinity: 2
    attribute: Percent
    path: 
    classID: 114
    script: {fileID: 11500000, guid: 63324c7d0af811d488d158395914eea8, type: 3}
  - curve:
      serializedVersion: 2
      m_Curve:
      - time: 0
        value: 0
        inSlope: 0
        outSlope: 0
        tangentMode: 0
      - time: 2.20000005
        value: 0
        inSlope: 0
        outSlope: 0
        tangentMode: 0
      - time: 2.26666665
        value: 85
        inSlope: 0
        outSlope: 0
        tangentMode: 0
      - time: 2.29999995
        value: 85
        inSlope: 0
        outSlope: 0
        tangentMode: 0
      - time: 2.36666656
        value: 0
        inSlope: 0
        outSlope: 0
        tangentMode: 0
      - time: 5
        value: 0
        inSlope: 0
        outSlope: 0
        tangentMode: 0
      m_PreInfinity: 2
      m_PostInfinity: 2
    attribute: Percent1
    path: 
    classID: 114
    script: {fileID: 11500000, guid: 63324c7d0af811d488d158395914eea8, type: 3}
  - curve:
      serializedVersion: 2
      m_Curve:
      - time: 0
        value: 0
        inSlope: 0
        outSlope: 0
        tangentMode: 0
      - time: .833333313
        value: 0
        inSlope: 0
        outSlope: 0
        tangentMode: 0
      - time: 1.10000002
        value: 30
        inSlope: 73.25
        outSlope: 73.25
        tangentMode: 10
      - time: 1.29999995
        value: 36.7999992
        inSlope: -51.142849
        outSlope: -51.142849
        tangentMode: 10
      - time: 1.5333333
        value: 5
        inSlope: 26.8571243
        outSlope: 26.8571243
        tangentMode: 10
      - time: 1.73333335
        value: 43
        inSlope: 80.9999771
        outSlope: 80.9999771
        tangentMode: 10
      - time: 1.93333328
        value: 37.4000015
        inSlope: -77.4999542
        outSlope: -77.4999542
        tangentMode: 10
      - time: 2.13333344
        value: 12
        inSlope: 24.0001335
        outSlope: 24.0001335
        tangentMode: 10
      - time: 2.33333325
        value: 47
        inSlope: 12.5000992
        outSlope: 12.5000992
        tangentMode: 10
      - time: 2.5333333
        value: 17
        inSlope: -42.4999924
        outSlope: -42.4999924
        tangentMode: 10
      - time: 2.73333335
        value: 30
        inSlope: -2.11538696
        outSlope: -2.11538696
        tangentMode: 10
      - time: 3.16666675
        value: 0
        inSlope: 0
        outSlope: 0
        tangentMode: 0
      - time: 5
        value: 0
        inSlope: 0
        outSlope: 0
        tangentMode: 0
      m_PreInfinity: 2
      m_PostInfinity: 2
    attribute: Percent2
    path: 
    classID: 114
    script: {fileID: 11500000, guid: 63324c7d0af811d488d158395914eea8, type: 3}
  - curve:
      serializedVersion: 2
      m_Curve:
      - time: 0
        value: 100
        inSlope: 0
        outSlope: 0
        tangentMode: 0
      - time: .833333313
        value: 100
        inSlope: 0
        outSlope: 0
        tangentMode: 0
      - time: 1.10000002
        value: 70
        inSlope: -42.4038391
        outSlope: -42.4038391
        tangentMode: 10
      - time: 1.5333333
        value: 82
        inSlope: -48.6538315
        outSlope: -48.6538315
        tangentMode: 10
      - time: 1.73333335
        value: 57
        inSlope: -38.7499924
        outSlope: -38.7499924
        tangentMode: 10
      - time: 2.13333344
        value: 76
        inSlope: -18.7500477
        outSlope: -18.7500477
        tangentMode: 10
      - time: 2.33333325
        value: 59
        inSlope: -50.0000381
        outSlope: -50.0000381
        tangentMode: 10
      - time: 2.5333333
        value: 56
        inSlope: 27.4999943
        outSlope: 27.4999943
        tangentMode: 10
      - time: 2.73333335
        value: 70
        inSlope: 69.6153717
        outSlope: 69.6153717
        tangentMode: 10
      - time: 3.16666675
        value: 100
        inSlope: 0
        outSlope: 0
        tangentMode: 0
      - time: 3.5
        value: 47
        inSlope: -117.000008
        outSlope: -117.000008
        tangentMode: 10
      - time: 3.70000005
        value: 32
        inSlope: 7.50004959
        outSlope: 7.50004959
        tangentMode: 10
      - time: 3.86666656
        value: 47
        inSlope: 6.48498535e-05
        outSlope: 6.48498535e-05
        tangentMode: 10
      - time: 4.0333333
        value: 32
        inSlope: 6.48498535e-05
        outSlope: 6.48498535e-05
        tangentMode: 10
      - time: 4.19999981
        value: 47
        inSlope: 78.1250305
        outSlope: 78.1250305
        tangentMode: 10
      - time: 5
        value: 100
        inSlope: 0
        outSlope: 0
        tangentMode: 0
      m_PreInfinity: 2
      m_PostInfinity: 2
    attribute: Percent3
    path: 
    classID: 114
    script: {fileID: 11500000, guid: 63324c7d0af811d488d158395914eea8, type: 3}
  - curve:
      serializedVersion: 2
      m_Curve:
      - time: 0
        value: 0
        inSlope: 0
        outSlope: 0
        tangentMode: 0
      - time: .833333313
        value: 0
        inSlope: 0
        outSlope: 0
        tangentMode: 0
      - time: 1.10000002
        value: 30
        inSlope: 13.7499771
        outSlope: 13.7499771
        tangentMode: 10
      - time: 1.29999995
        value: 13
        inSlope: -46.7857285
        outSlope: -46.7857285
        tangentMode: 10
      - time: 1.5333333
        value: 11
        inSlope: 18.2142792
        outSlope: 18.2142792
        tangentMode: 10
      - time: 1.73333335
        value: 20
        inSlope: 4.74998665
        outSlope: 4.74998665
        tangentMode: 10
      - time: 1.93333328
        value: 12.8999996
        inSlope: -22.5000038
        outSlope: -22.5000038
        tangentMode: 10
      - time: 2.13333344
        value: 11
        inSlope: 42.7500496
        outSlope: 42.7500496
        tangentMode: 10
      - time: 2.33333325
        value: 30
        inSlope: 45.0000458
        outSlope: 45.0000458
        tangentMode: 10
      - time: 2.5333333
        value: 29
        inSlope: 0
        outSlope: 0
        tangentMode: 10
      - time: 2.73333335
        value: 30
        inSlope: -32.1153793
        outSlope: -32.1153793
        tangentMode: 10
      - time: 3.16666675
        value: 0
        inSlope: 0
        outSlope: 0
        tangentMode: 0
      - time: 5
        value: 0
        inSlope: 0
        outSlope: 0
        tangentMode: 0
      m_PreInfinity: 2
      m_PostInfinity: 2
    attribute: Percent4
    path: 
    classID: 114
    script: {fileID: 11500000, guid: 63324c7d0af811d488d158395914eea8, type: 3}
  - curve:
      serializedVersion: 2
      m_Curve:
      - time: 0
        value: 0
        inSlope: 0
        outSlope: 0
        tangentMode: 0
      - time: 3.16666675
        value: 0
        inSlope: 0
        outSlope: 0
        tangentMode: 0
      - time: 3.5
        value: 58
        inSlope: 119.500015
        outSlope: 119.500015
        tangentMode: 10
      - time: 3.70000005
        value: 71
        inSlope: -6.50004578
        outSlope: -6.50004578
        tangentMode: 10
      - time: 3.86666656
        value: 58
        inSlope: -5.7220459e-05
        outSlope: -5.7220459e-05
        tangentMode: 10
      - time: 4.0333333
        value: 71
        inSlope: -5.7220459e-05
        outSlope: -5.7220459e-05
        tangentMode: 10
      - time: 4.19999981
        value: 58
        inSlope: -113.999992
        outSlope: -113.999992
        tangentMode: 10
      - time: 4.5
        value: 13
        inSlope: -87.9999542
        outSlope: -87.9999542
        tangentMode: 10
      - time: 5
        value: 0
        inSlope: 0
        outSlope: 0
        tangentMode: 0
      m_PreInfinity: 2
      m_PostInfinity: 2
    attribute: Percent5
    path: 
    classID: 114
    script: {fileID: 11500000, guid: 63324c7d0af811d488d158395914eea8, type: 3}
  - curve:
      serializedVersion: 2
      m_Curve:
      - time: 0
        value: 0
        inSlope: 0
        outSlope: 0
        tangentMode: 10
      - time: 5
        value: 0
        inSlope: 0
        outSlope: 0
        tangentMode: 10
      m_PreInfinity: 2
      m_PostInfinity: 2
    attribute: Percent6
    path: 
    classID: 114
    script: {fileID: 11500000, guid: 63324c7d0af811d488d158395914eea8, type: 3}
  - curve:
      serializedVersion: 2
      m_Curve:
      - time: 0
        value: 0
        inSlope: 0
        outSlope: 0
        tangentMode: 10
      - time: 5
        value: 0
        inSlope: 0
        outSlope: 0
        tangentMode: 10
      m_PreInfinity: 2
      m_PostInfinity: 2
    attribute: Percent7
    path: 
    classID: 114
    script: {fileID: 11500000, guid: 63324c7d0af811d488d158395914eea8, type: 3}
  - curve:
      serializedVersion: 2
      m_Curve:
      - time: 0
        value: 0
        inSlope: 0
        outSlope: 0
        tangentMode: 10
      - time: 5
        value: 0
        inSlope: 0
        outSlope: 0
        tangentMode: 10
      m_PreInfinity: 2
      m_PostInfinity: 2
    attribute: Percent8
    path: 
    classID: 114
    script: {fileID: 11500000, guid: 63324c7d0af811d488d158395914eea8, type: 3}
  - curve:
      serializedVersion: 2
      m_Curve:
      - time: 0
        value: 0
        inSlope: 0
        outSlope: 0
        tangentMode: 10
      - time: 5
        value: 0
        inSlope: 0
        outSlope: 0
        tangentMode: 10
      m_PreInfinity: 2
      m_PostInfinity: 2
    attribute: Percent9
    path: 
    classID: 114
    script: {fileID: 11500000, guid: 63324c7d0af811d488d158395914eea8, type: 3}
  - curve:
      serializedVersion: 2
      m_Curve:
      - time: 0
        value: 0
        inSlope: 0
        outSlope: 0
        tangentMode: 10
      - time: 5
        value: 0
        inSlope: 0
        outSlope: 0
        tangentMode: 10
      m_PreInfinity: 2
      m_PostInfinity: 2
    attribute: Percent10
    path: 
    classID: 114
    script: {fileID: 11500000, guid: 63324c7d0af811d488d158395914eea8, type: 3}
  m_EulerEditorCurves: []
  m_Events: []
