%YAML 1.1
%TAG !u! tag:unity3d.com,2011:
--- !u!74 &7400000
AnimationClip:
  m_ObjectHideFlags: 0
  m_PrefabParentObject: {fileID: 0}
  m_PrefabInternal: {fileID: 0}
  m_Name: visitL_idle
  serializedVersion: 3
  m_AnimationType: 1
  m_Compressed: 0
  m_RotationCurves: []
  m_CompressedRotationCurves: []
  m_PositionCurves: []
  m_ScaleCurves: []
  m_FloatCurves:
  - curve:
      serializedVersion: 2
      m_Curve:
      - time: 0
        value: 0
        inSlope: 0
        outSlope: 0
        tangentMode: 0
      - time: .5
        value: 0
        inSlope: 0
        outSlope: 0
        tangentMode: 0
      - time: 3.0666666
        value: 0
        inSlope: 0
        outSlope: 0
        tangentMode: 0
      - time: 3.5666666
        value: 6
        inSlope: 0
        outSlope: 0
        tangentMode: 0
      - time: 4.13333321
        value: 0
        inSlope: 0
        outSlope: 0
        tangentMode: 0
      - time: 4.66666651
        value: 0
        inSlope: 0
        outSlope: 0
        tangentMode: 0
      - time: 4.73333311
        value: 86
        inSlope: 0
        outSlope: 0
        tangentMode: 0
      - time: 4.76666689
        value: 86
        inSlope: 0
        outSlope: 0
        tangentMode: 0
      - time: 4.83333349
        value: 0
        inSlope: 0
        outSlope: 0
        tangentMode: 0
      - time: 5
        value: 0
        inSlope: 0
        outSlope: 0
        tangentMode: 0
      m_PreInfinity: 2
      m_PostInfinity: 2
    attribute: Percent
    path: 
    classID: 114
    script: {fileID: 11500000, guid: 63324c7d0af811d488d158395914eea8, type: 3}
  - curve:
      serializedVersion: 2
      m_Curve:
      - time: 0
        value: 0
        inSlope: 0
        outSlope: 0
        tangentMode: 0
      - time: .5
        value: 0
        inSlope: 0
        outSlope: 0
        tangentMode: 0
      - time: 3.0666666
        value: 0
        inSlope: 0
        outSlope: 0
        tangentMode: 0
      - time: 3.5666666
        value: 9
        inSlope: 0
        outSlope: 0
        tangentMode: 0
      - time: 4.13333321
        value: 0
        inSlope: 0
        outSlope: 0
        tangentMode: 0
      - time: 4.66666651
        value: 0
        inSlope: 0
        outSlope: 0
        tangentMode: 0
      - time: 4.73333311
        value: 86
        inSlope: 0
        outSlope: 0
        tangentMode: 0
      - time: 4.76666689
        value: 86
        inSlope: 0
        outSlope: 0
        tangentMode: 0
      - time: 4.83333349
        value: 0
        inSlope: 0
        outSlope: 0
        tangentMode: 0
      - time: 5
        value: 0
        inSlope: 0
        outSlope: 0
        tangentMode: 0
      m_PreInfinity: 2
      m_PostInfinity: 2
    attribute: Percent1
    path: 
    classID: 114
    script: {fileID: 11500000, guid: 63324c7d0af811d488d158395914eea8, type: 3}
  - curve:
      serializedVersion: 2
      m_Curve:
      - time: 0
        value: 0
        inSlope: 0
        outSlope: 0
        tangentMode: 0
      - time: .5
        value: 0
        inSlope: 0
        outSlope: 0
        tangentMode: 0
      - time: 3.0666666
        value: 0
        inSlope: 0
        outSlope: 0
        tangentMode: 0
      - time: 3.16666675
        value: 32
        inSlope: 87.4997025
        outSlope: 87.4997025
        tangentMode: 10
      - time: 3.26666665
        value: 17.5
        inSlope: -105.000099
        outSlope: -105.000099
        tangentMode: 10
      - time: 3.36666656
        value: 11
        inSlope: 37.4998703
        outSlope: 37.4998703
        tangentMode: 10
      - time: 3.4666667
        value: 25
        inSlope: 32.4998665
        outSlope: 32.4998665
        tangentMode: 10
      - time: 3.5666666
        value: 17.5
        inSlope: -56.2499847
        outSlope: -56.2499847
        tangentMode: 10
      - time: 3.63333344
        value: 15
        inSlope: 81.2501526
        outSlope: 81.2501526
        tangentMode: 10
      - time: 3.73333335
        value: 35
        inSlope: -31.2500229
        outSlope: -31.2500229
        tangentMode: 10
      - time: 3.79999995
        value: 17.5
        inSlope: -148.750092
        outSlope: -148.750092
        tangentMode: 0
      - time: 3.9000001
        value: 14
        inSlope: -47.5000038
        outSlope: -47.5000038
        tangentMode: 0
      - time: 4.13333321
        value: 0
        inSlope: 0
        outSlope: 0
        tangentMode: 0
      - time: 4.4333334
        value: 0
        inSlope: 0
        outSlope: 0
        tangentMode: 0
      - time: 5
        value: 0
        inSlope: 0
        outSlope: 0
        tangentMode: 0
      m_PreInfinity: 2
      m_PostInfinity: 2
    attribute: Percent2
    path: 
    classID: 114
    script: {fileID: 11500000, guid: 63324c7d0af811d488d158395914eea8, type: 3}
  - curve:
      serializedVersion: 2
      m_Curve:
      - time: 0
        value: 100
        inSlope: 0
        outSlope: 0
        tangentMode: 0
      - time: .5
        value: 100
        inSlope: 0
        outSlope: 0
        tangentMode: 0
      - time: 1.16666663
        value: 88
        inSlope: -51.8999939
        outSlope: -51.8999939
        tangentMode: 10
      - time: 1.5
        value: 59.4000015
        inSlope: -8.82856369
        outSlope: -8.82856369
        tangentMode: 10
      - time: 1.73333335
        value: 75.3000031
        inSlope: -105.857147
        outSlope: -105.857147
        tangentMode: 10
      - time: 1.9666667
        value: 10
        inSlope: 0
        outSlope: 0
        tangentMode: 0
      - time: 2.23333335
        value: 10
        inSlope: 0
        outSlope: 0
        tangentMode: 0
      - time: 2.76666665
        value: 100
        inSlope: 0
        outSlope: 0
        tangentMode: 0
      - time: 3.0666666
        value: 100
        inSlope: 0
        outSlope: 0
        tangentMode: 0
      - time: 3.16666675
        value: 53
        inSlope: -172.249603
        outSlope: -172.249603
        tangentMode: 10
      - time: 3.36666656
        value: 78.0999985
        inSlope: -62.749752
        outSlope: -62.749752
        tangentMode: 10
      - time: 3.4666667
        value: 53
        inSlope: -50.199852
        outSlope: -50.199852
        tangentMode: 10
      - time: 3.63333344
        value: 78.0999985
        inSlope: -50.2001572
        outSlope: -50.2001572
        tangentMode: 10
      - time: 3.73333335
        value: 53
        inSlope: -50.2001572
        outSlope: -50.2001572
        tangentMode: 10
      - time: 3.9000001
        value: 78.0999985
        inSlope: 85.1571045
        outSlope: 85.1571045
        tangentMode: 10
      - time: 4.13333321
        value: 82.6999969
        inSlope: -4.64283657
        outSlope: -4.64283657
        tangentMode: 10
      - time: 4.4333334
        value: 74
        inSlope: 8.44119358
        outSlope: 8.44119358
        tangentMode: 10
      - time: 5
        value: 100
        inSlope: 0
        outSlope: 0
        tangentMode: 0
      m_PreInfinity: 2
      m_PostInfinity: 2
    attribute: Percent3
    path: 
    classID: 114
    script: {fileID: 11500000, guid: 63324c7d0af811d488d158395914eea8, type: 3}
  - curve:
      serializedVersion: 2
      m_Curve:
      - time: 0
        value: 0
        inSlope: 0
        outSlope: 0
        tangentMode: 0
      - time: .5
        value: 0
        inSlope: 0
        outSlope: 0
        tangentMode: 0
      - time: 3.0666666
        value: 0
        inSlope: 0
        outSlope: 0
        tangentMode: 0
      - time: 3.16666675
        value: 34
        inSlope: 182.499771
        outSlope: 182.499771
        tangentMode: 10
      - time: 3.26666665
        value: 36.5
        inSlope: -70.000061
        outSlope: -70.000061
        tangentMode: 10
      - time: 3.36666656
        value: 20
        inSlope: 52.4997253
        outSlope: 52.4997253
        tangentMode: 10
      - time: 3.4666667
        value: 47
        inSlope: 82.4997559
        outSlope: 82.4997559
        tangentMode: 10
      - time: 3.5666666
        value: 36.5
        inSlope: -228.749588
        outSlope: -228.749588
        tangentMode: 10
      - time: 3.63333344
        value: 13
        inSlope: -6.24937439
        outSlope: -6.24937439
        tangentMode: 10
      - time: 3.73333335
        value: 47
        inSlope: 91.2500916
        outSlope: 91.2500916
        tangentMode: 10
      - time: 3.79999995
        value: 36.5
        inSlope: -161.249969
        outSlope: -161.249969
        tangentMode: 10
      - time: 3.9000001
        value: 20
        inSlope: -125.357071
        outSlope: -125.357071
        tangentMode: 10
      - time: 4.13333321
        value: 0
        inSlope: 0
        outSlope: 0
        tangentMode: 0
      - time: 5
        value: 0
        inSlope: 0
        outSlope: 0
        tangentMode: 0
      m_PreInfinity: 2
      m_PostInfinity: 2
    attribute: Percent4
    path: 
    classID: 114
    script: {fileID: 11500000, guid: 63324c7d0af811d488d158395914eea8, type: 3}
  - curve:
      serializedVersion: 2
      m_Curve:
      - time: 0
        value: 0
        inSlope: 0
        outSlope: 0
        tangentMode: 0
      - time: .5
        value: 0
        inSlope: 0
        outSlope: 0
        tangentMode: 0
      - time: 1.16666663
        value: 11
        inSlope: 22.1999969
        outSlope: 22.1999969
        tangentMode: 10
      - time: 1.5
        value: 20.2999992
        inSlope: 29.3785686
        outSlope: 29.3785686
        tangentMode: 10
      - time: 1.73333335
        value: 27.5
        inSlope: 35.1426239
        outSlope: 35.1426239
        tangentMode: 0
      - time: 1.9666667
        value: 100
        inSlope: 100.607086
        outSlope: 100.607086
        tangentMode: 10
      - time: 2.0999999
        value: 85.4000015
        inSlope: -9.53674316e-05
        outSlope: -9.53674316e-05
        tangentMode: 10
      - time: 2.23333335
        value: 100
        inSlope: -9.53674316e-05
        outSlope: -9.53674316e-05
        tangentMode: 10
      - time: 2.36666656
        value: 85.4000015
        inSlope: -115.750046
        outSlope: -115.750046
        tangentMode: 10
      - time: 3.0666666
        value: 0
        inSlope: 0
        outSlope: 0
        tangentMode: 0
      - time: 4.13333321
        value: 0
        inSlope: 0
        outSlope: 0
        tangentMode: 0
      - time: 5
        value: 0
        inSlope: 0
        outSlope: 0
        tangentMode: 0
      m_PreInfinity: 2
      m_PostInfinity: 2
    attribute: Percent5
    path: 
    classID: 114
    script: {fileID: 11500000, guid: 63324c7d0af811d488d158395914eea8, type: 3}
  - curve:
      serializedVersion: 2
      m_Curve:
      - time: 0
        value: 0
        inSlope: 0
        outSlope: 0
        tangentMode: 0
      - time: .0166666675
        value: 0
        inSlope: 0
        outSlope: 0
        tangentMode: 0
      - time: .5
        value: 0
        inSlope: 0
        outSlope: 0
        tangentMode: 0
      - time: 1.5
        value: 38
        inSlope: 0
        outSlope: 0
        tangentMode: 0
      - time: 1.73333335
        value: 0
        inSlope: 0
        outSlope: 0
        tangentMode: 0
      - time: 5
        value: 0
        inSlope: 0
        outSlope: 0
        tangentMode: 0
      m_PreInfinity: 2
      m_PostInfinity: 2
    attribute: Percent7
    path: 
    classID: 114
    script: {fileID: 11500000, guid: 63324c7d0af811d488d158395914eea8, type: 3}
  - curve:
      serializedVersion: 2
      m_Curve:
      - time: 0
        value: 0
        inSlope: 0
        outSlope: 0
        tangentMode: 0
      - time: .0166666675
        value: 0
        inSlope: 0
        outSlope: 0
        tangentMode: 0
      - time: 2.36666656
        value: 0
        inSlope: 0
        outSlope: 0
        tangentMode: 0
      - time: 3.0666666
        value: 25
        inSlope: 18.2790165
        outSlope: 18.2790165
        tangentMode: 10
      - time: 4.13333321
        value: 25.8999996
        inSlope: -42.7447624
        outSlope: -42.7447624
        tangentMode: 10
      - time: 4.4333334
        value: 0
        inSlope: 0
        outSlope: 0
        tangentMode: 0
      - time: 5
        value: 0
        inSlope: 0
        outSlope: 0
        tangentMode: 0
      m_PreInfinity: 2
      m_PostInfinity: 2
    attribute: Percent9
    path: 
    classID: 114
    script: {fileID: 11500000, guid: 63324c7d0af811d488d158395914eea8, type: 3}
  - curve:
      serializedVersion: 2
      m_Curve:
      - time: 0
        value: 0
        inSlope: 0
        outSlope: 0
        tangentMode: 10
      - time: 5
        value: 0
        inSlope: 0
        outSlope: 0
        tangentMode: 10
      m_PreInfinity: 2
      m_PostInfinity: 2
    attribute: Percent6
    path: 
    classID: 114
    script: {fileID: 11500000, guid: 63324c7d0af811d488d158395914eea8, type: 3}
  - curve:
      serializedVersion: 2
      m_Curve:
      - time: 0
        value: 0
        inSlope: 0
        outSlope: 0
        tangentMode: 10
      - time: 5
        value: 0
        inSlope: 0
        outSlope: 0
        tangentMode: 10
      m_PreInfinity: 2
      m_PostInfinity: 2
    attribute: Percent8
    path: 
    classID: 114
    script: {fileID: 11500000, guid: 63324c7d0af811d488d158395914eea8, type: 3}
  - curve:
      serializedVersion: 2
      m_Curve:
      - time: 0
        value: 0
        inSlope: 0
        outSlope: 0
        tangentMode: 10
      - time: 5
        value: 0
        inSlope: 0
        outSlope: 0
        tangentMode: 10
      m_PreInfinity: 2
      m_PostInfinity: 2
    attribute: Percent10
    path: 
    classID: 114
    script: {fileID: 11500000, guid: 63324c7d0af811d488d158395914eea8, type: 3}
  m_SampleRate: 60
  m_WrapMode: 0
  m_Bounds:
    m_Center: {x: 0, y: 0, z: 0}
    m_Extent: {x: 0, y: 0, z: 0}
  m_MuscleClipInfo:
    m_StartTime: 0
    m_StopTime: 1
    m_OrientationOffsetY: 0
    m_Level: 0
    m_CycleOffset: 0
    m_LoopBlend: 0
    m_LoopBlendOrientation: 0
    m_LoopBlendPositionY: 0
    m_LoopBlendPositionXZ: 0
    m_KeepOriginalOrientation: 0
    m_KeepOriginalPositionY: 1
    m_KeepOriginalPositionXZ: 0
    m_HeightFromFeet: 0
    m_Mirror: 0
  m_EditorCurves:
  - curve:
      serializedVersion: 2
      m_Curve:
      - time: 0
        value: 0
        inSlope: 0
        outSlope: 0
        tangentMode: 0
      - time: .5
        value: 0
        inSlope: 0
        outSlope: 0
        tangentMode: 0
      - time: 3.0666666
        value: 0
        inSlope: 0
        outSlope: 0
        tangentMode: 0
      - time: 3.5666666
        value: 6
        inSlope: 0
        outSlope: 0
        tangentMode: 0
      - time: 4.13333321
        value: 0
        inSlope: 0
        outSlope: 0
        tangentMode: 0
      - time: 4.66666651
        value: 0
        inSlope: 0
        outSlope: 0
        tangentMode: 0
      - time: 4.73333311
        value: 86
        inSlope: 0
        outSlope: 0
        tangentMode: 0
      - time: 4.76666689
        value: 86
        inSlope: 0
        outSlope: 0
        tangentMode: 0
      - time: 4.83333349
        value: 0
        inSlope: 0
        outSlope: 0
        tangentMode: 0
      - time: 5
        value: 0
        inSlope: 0
        outSlope: 0
        tangentMode: 0
      m_PreInfinity: 2
      m_PostInfinity: 2
    attribute: Percent
    path: 
    classID: 114
    script: {fileID: 11500000, guid: 63324c7d0af811d488d158395914eea8, type: 3}
  - curve:
      serializedVersion: 2
      m_Curve:
      - time: 0
        value: 0
        inSlope: 0
        outSlope: 0
        tangentMode: 0
      - time: .5
        value: 0
        inSlope: 0
        outSlope: 0
        tangentMode: 0
      - time: 3.0666666
        value: 0
        inSlope: 0
        outSlope: 0
        tangentMode: 0
      - time: 3.5666666
        value: 9
        inSlope: 0
        outSlope: 0
        tangentMode: 0
      - time: 4.13333321
        value: 0
        inSlope: 0
        outSlope: 0
        tangentMode: 0
      - time: 4.66666651
        value: 0
        inSlope: 0
        outSlope: 0
        tangentMode: 0
      - time: 4.73333311
        value: 86
        inSlope: 0
        outSlope: 0
        tangentMode: 0
      - time: 4.76666689
        value: 86
        inSlope: 0
        outSlope: 0
        tangentMode: 0
      - time: 4.83333349
        value: 0
        inSlope: 0
        outSlope: 0
        tangentMode: 0
      - time: 5
        value: 0
        inSlope: 0
        outSlope: 0
        tangentMode: 0
      m_PreInfinity: 2
      m_PostInfinity: 2
    attribute: Percent1
    path: 
    classID: 114
    script: {fileID: 11500000, guid: 63324c7d0af811d488d158395914eea8, type: 3}
  - curve:
      serializedVersion: 2
      m_Curve:
      - time: 0
        value: 0
        inSlope: 0
        outSlope: 0
        tangentMode: 0
      - time: .5
        value: 0
        inSlope: 0
        outSlope: 0
        tangentMode: 0
      - time: 3.0666666
        value: 0
        inSlope: 0
        outSlope: 0
        tangentMode: 0
      - time: 3.16666675
        value: 32
        inSlope: 87.4997025
        outSlope: 87.4997025
        tangentMode: 10
      - time: 3.26666665
        value: 17.5
        inSlope: -105.000099
        outSlope: -105.000099
        tangentMode: 10
      - time: 3.36666656
        value: 11
        inSlope: 37.4998703
        outSlope: 37.4998703
        tangentMode: 10
      - time: 3.4666667
        value: 25
        inSlope: 32.4998665
        outSlope: 32.4998665
        tangentMode: 10
      - time: 3.5666666
        value: 17.5
        inSlope: -56.2499847
        outSlope: -56.2499847
        tangentMode: 10
      - time: 3.63333344
        value: 15
        inSlope: 81.2501526
        outSlope: 81.2501526
        tangentMode: 10
      - time: 3.73333335
        value: 35
        inSlope: -31.2500229
        outSlope: -31.2500229
        tangentMode: 10
      - time: 3.79999995
        value: 17.5
        inSlope: -148.750092
        outSlope: -148.750092
        tangentMode: 0
      - time: 3.9000001
        value: 14
        inSlope: -47.5000038
        outSlope: -47.5000038
        tangentMode: 0
      - time: 4.13333321
        value: 0
        inSlope: 0
        outSlope: 0
        tangentMode: 0
      - time: 4.4333334
        value: 0
        inSlope: 0
        outSlope: 0
        tangentMode: 0
      - time: 5
        value: 0
        inSlope: 0
        outSlope: 0
        tangentMode: 0
      m_PreInfinity: 2
      m_PostInfinity: 2
    attribute: Percent2
    path: 
    classID: 114
    script: {fileID: 11500000, guid: 63324c7d0af811d488d158395914eea8, type: 3}
  - curve:
      serializedVersion: 2
      m_Curve:
      - time: 0
        value: 100
        inSlope: 0
        outSlope: 0
        tangentMode: 0
      - time: .5
        value: 100
        inSlope: 0
        outSlope: 0
        tangentMode: 0
      - time: 1.16666663
        value: 88
        inSlope: -51.8999939
        outSlope: -51.8999939
        tangentMode: 10
      - time: 1.5
        value: 59.4000015
        inSlope: -8.82856369
        outSlope: -8.82856369
        tangentMode: 10
      - time: 1.73333335
        value: 75.3000031
        inSlope: -105.857147
        outSlope: -105.857147
        tangentMode: 10
      - time: 1.9666667
        value: 10
        inSlope: 0
        outSlope: 0
        tangentMode: 0
      - time: 2.23333335
        value: 10
        inSlope: 0
        outSlope: 0
        tangentMode: 0
      - time: 2.76666665
        value: 100
        inSlope: 0
        outSlope: 0
        tangentMode: 0
      - time: 3.0666666
        value: 100
        inSlope: 0
        outSlope: 0
        tangentMode: 0
      - time: 3.16666675
        value: 53
        inSlope: -172.249603
        outSlope: -172.249603
        tangentMode: 10
      - time: 3.36666656
        value: 78.0999985
        inSlope: -62.749752
        outSlope: -62.749752
        tangentMode: 10
      - time: 3.4666667
        value: 53
        inSlope: -50.199852
        outSlope: -50.199852
        tangentMode: 10
      - time: 3.63333344
        value: 78.0999985
        inSlope: -50.2001572
        outSlope: -50.2001572
        tangentMode: 10
      - time: 3.73333335
        value: 53
        inSlope: -50.2001572
        outSlope: -50.2001572
        tangentMode: 10
      - time: 3.9000001
        value: 78.0999985
        inSlope: 85.1571045
        outSlope: 85.1571045
        tangentMode: 10
      - time: 4.13333321
        value: 82.6999969
        inSlope: -4.64283657
        outSlope: -4.64283657
        tangentMode: 10
      - time: 4.4333334
        value: 74
        inSlope: 8.44119358
        outSlope: 8.44119358
        tangentMode: 10
      - time: 5
        value: 100
        inSlope: 0
        outSlope: 0
        tangentMode: 0
      m_PreInfinity: 2
      m_PostInfinity: 2
    attribute: Percent3
    path: 
    classID: 114
    script: {fileID: 11500000, guid: 63324c7d0af811d488d158395914eea8, type: 3}
  - curve:
      serializedVersion: 2
      m_Curve:
      - time: 0
        value: 0
        inSlope: 0
        outSlope: 0
        tangentMode: 0
      - time: .5
        value: 0
        inSlope: 0
        outSlope: 0
        tangentMode: 0
      - time: 3.0666666
        value: 0
        inSlope: 0
        outSlope: 0
        tangentMode: 0
      - time: 3.16666675
        value: 34
        inSlope: 182.499771
        outSlope: 182.499771
        tangentMode: 10
      - time: 3.26666665
        value: 36.5
        inSlope: -70.000061
        outSlope: -70.000061
        tangentMode: 10
      - time: 3.36666656
        value: 20
        inSlope: 52.4997253
        outSlope: 52.4997253
        tangentMode: 10
      - time: 3.4666667
        value: 47
        inSlope: 82.4997559
        outSlope: 82.4997559
        tangentMode: 10
      - time: 3.5666666
        value: 36.5
        inSlope: -228.749588
        outSlope: -228.749588
        tangentMode: 10
      - time: 3.63333344
        value: 13
        inSlope: -6.24937439
        outSlope: -6.24937439
        tangentMode: 10
      - time: 3.73333335
        value: 47
        inSlope: 91.2500916
        outSlope: 91.2500916
        tangentMode: 10
      - time: 3.79999995
        value: 36.5
        inSlope: -161.249969
        outSlope: -161.249969
        tangentMode: 10
      - time: 3.9000001
        value: 20
        inSlope: -125.357071
        outSlope: -125.357071
        tangentMode: 10
      - time: 4.13333321
        value: 0
        inSlope: 0
        outSlope: 0
        tangentMode: 0
      - time: 5
        value: 0
        inSlope: 0
        outSlope: 0
        tangentMode: 0
      m_PreInfinity: 2
      m_PostInfinity: 2
    attribute: Percent4
    path: 
    classID: 114
    script: {fileID: 11500000, guid: 63324c7d0af811d488d158395914eea8, type: 3}
  - curve:
      serializedVersion: 2
      m_Curve:
      - time: 0
        value: 0
        inSlope: 0
        outSlope: 0
        tangentMode: 0
      - time: .5
        value: 0
        inSlope: 0
        outSlope: 0
        tangentMode: 0
      - time: 1.16666663
        value: 11
        inSlope: 22.1999969
        outSlope: 22.1999969
        tangentMode: 10
      - time: 1.5
        value: 20.2999992
        inSlope: 29.3785686
        outSlope: 29.3785686
        tangentMode: 10
      - time: 1.73333335
        value: 27.5
        inSlope: 35.1426239
        outSlope: 35.1426239
        tangentMode: 0
      - time: 1.9666667
        value: 100
        inSlope: 100.607086
        outSlope: 100.607086
        tangentMode: 10
      - time: 2.0999999
        value: 85.4000015
        inSlope: -9.53674316e-05
        outSlope: -9.53674316e-05
        tangentMode: 10
      - time: 2.23333335
        value: 100
        inSlope: -9.53674316e-05
        outSlope: -9.53674316e-05
        tangentMode: 10
      - time: 2.36666656
        value: 85.4000015
        inSlope: -115.750046
        outSlope: -115.750046
        tangentMode: 10
      - time: 3.0666666
        value: 0
        inSlope: 0
        outSlope: 0
        tangentMode: 0
      - time: 4.13333321
        value: 0
        inSlope: 0
        outSlope: 0
        tangentMode: 0
      - time: 5
        value: 0
        inSlope: 0
        outSlope: 0
        tangentMode: 0
      m_PreInfinity: 2
      m_PostInfinity: 2
    attribute: Percent5
    path: 
    classID: 114
    script: {fileID: 11500000, guid: 63324c7d0af811d488d158395914eea8, type: 3}
  - curve:
      serializedVersion: 2
      m_Curve:
      - time: 0
        value: 0
        inSlope: 0
        outSlope: 0
        tangentMode: 0
      - time: .0166666675
        value: 0
        inSlope: 0
        outSlope: 0
        tangentMode: 0
      - time: .5
        value: 0
        inSlope: 0
        outSlope: 0
        tangentMode: 0
      - time: 1.5
        value: 38
        inSlope: 0
        outSlope: 0
        tangentMode: 0
      - time: 1.73333335
        value: 0
        inSlope: 0
        outSlope: 0
        tangentMode: 0
      - time: 5
        value: 0
        inSlope: 0
        outSlope: 0
        tangentMode: 0
      m_PreInfinity: 2
      m_PostInfinity: 2
    attribute: Percent7
    path: 
    classID: 114
    script: {fileID: 11500000, guid: 63324c7d0af811d488d158395914eea8, type: 3}
  - curve:
      serializedVersion: 2
      m_Curve:
      - time: 0
        value: 0
        inSlope: 0
        outSlope: 0
        tangentMode: 0
      - time: .0166666675
        value: 0
        inSlope: 0
        outSlope: 0
        tangentMode: 0
      - time: 2.36666656
        value: 0
        inSlope: 0
        outSlope: 0
        tangentMode: 0
      - time: 3.0666666
        value: 25
        inSlope: 18.2790165
        outSlope: 18.2790165
        tangentMode: 10
      - time: 4.13333321
        value: 25.8999996
        inSlope: -42.7447624
        outSlope: -42.7447624
        tangentMode: 10
      - time: 4.4333334
        value: 0
        inSlope: 0
        outSlope: 0
        tangentMode: 0
      - time: 5
        value: 0
        inSlope: 0
        outSlope: 0
        tangentMode: 0
      m_PreInfinity: 2
      m_PostInfinity: 2
    attribute: Percent9
    path: 
    classID: 114
    script: {fileID: 11500000, guid: 63324c7d0af811d488d158395914eea8, type: 3}
  - curve:
      serializedVersion: 2
      m_Curve:
      - time: 0
        value: 0
        inSlope: 0
        outSlope: 0
        tangentMode: 10
      - time: 5
        value: 0
        inSlope: 0
        outSlope: 0
        tangentMode: 10
      m_PreInfinity: 2
      m_PostInfinity: 2
    attribute: Percent6
    path: 
    classID: 114
    script: {fileID: 11500000, guid: 63324c7d0af811d488d158395914eea8, type: 3}
  - curve:
      serializedVersion: 2
      m_Curve:
      - time: 0
        value: 0
        inSlope: 0
        outSlope: 0
        tangentMode: 10
      - time: 5
        value: 0
        inSlope: 0
        outSlope: 0
        tangentMode: 10
      m_PreInfinity: 2
      m_PostInfinity: 2
    attribute: Percent8
    path: 
    classID: 114
    script: {fileID: 11500000, guid: 63324c7d0af811d488d158395914eea8, type: 3}
  - curve:
      serializedVersion: 2
      m_Curve:
      - time: 0
        value: 0
        inSlope: 0
        outSlope: 0
        tangentMode: 10
      - time: 5
        value: 0
        inSlope: 0
        outSlope: 0
        tangentMode: 10
      m_PreInfinity: 2
      m_PostInfinity: 2
    attribute: Percent10
    path: 
    classID: 114
    script: {fileID: 11500000, guid: 63324c7d0af811d488d158395914eea8, type: 3}
  m_EulerEditorCurves: []
  m_Events: []
