%YAML 1.1
%TAG !u! tag:unity3d.com,2011:
--- !u!1045 &1
EditorBuildSettings:
  m_ObjectHideFlags: 0
  serializedVersion: 2
  m_Scenes:
  - enabled: 1
    path: Assets/Scenes/InitDB.unity
  - enabled: 1
    path: Assets/Scenes/Title.unity
  - enabled: 1
    path: Assets/Scenes/Home.unity
  - enabled: 1
    path: Assets/Scenes/Loading.unity
  - enabled: 1
    path: Assets/Scenes/Street.unity
  - enabled: 1
    path: Assets/Scenes/Job.unity
  - enabled: 1
    path: Assets/Scenes/Closet.unity
  - enabled: 1
    path: Assets/Scenes/Photoshot.unity
  - enabled: 1
    path: Assets/Scenes/FriendsHome.unity
  - enabled: 1
    path: Assets/Scenes/Shop.unity
  - enabled: 1
    path: Assets/Scenes/Boyfriend.unity
  - enabled: 1
    path: Assets/Scenes/MiniGame.unity
  - enabled: 1
    path: Assets/Scenes/MiniGameCoinDrop.unity
  - enabled: 1
    path: Assets/Scenes/MiniGameClothMatch.unity
  - enabled: 1
    path: Assets/Scenes/BoyfriendMap.unity
  - enabled: 1
    path: Assets/Scenes/GroupChat.unity
