%YAML 1.1
%TAG !u! tag:unity3d.com,2011:
--- !u!47 &1
QualitySettings:
  m_ObjectHideFlags: 0
  serializedVersion: 5
  m_CurrentQuality: 0
  m_QualitySettings:
  - serializedVersion: 2
    name: Good
    pixelLightCount: 0
    shadows: 0
    shadowResolution: 0
    shadowProjection: 0
    shadowCascades: 1
    shadowDistance: 0
    blendWeights: 4
    textureQuality: 0
    anisotropicTextures: 0
    antiAliasing: 0
    softParticles: 0
    softVegetation: 1
    vSyncCount: 0
    lodBias: 1
    maximumLODLevel: 0
    particleRaycastBudget: 256
    excludedTargetPlatforms: []
  m_PerPlatformDefaultQuality: {}
